ECON 621 Lab #5: Aboli Khairnar
…
Top topics by year:

df <- topic_prevalence
#colnames(df) <- topic_names
df$year <- as.character(speeches$year)
df <- melt(df, id.vars = 'year', value.name = 'proportion', variable.name = 'topic')
df$decade <- paste0(substr(df$year, 0, 3), "0")

result <- df %>% 
             group_by(year) %>%
             filter(proportion == max(proportion)) %>%
             select(year, topic, proportion)
result

## # A tibble: 47 x 3
## # Groups:   year [47]
##    year  topic proportion
##    <chr> <fct>      <dbl>
##  1 1971  V1          1.00
##  2 1972  V1          1.00
##  3 1973  V1          1.00
##  4 1974  V1          1.00
##  5 1975  V1          1.00
##  6 1976  V1          1.00
##  7 1977  V1          1.00
##  8 1978  V1          1.00
##  9 1979  V1          1.00
## 10 1980  V1          1.00
## # ... with 37 more rows
…
